<svg width="21" height="21" viewBox="0 0 21 21" fill="none" xmlns="http://www.w3.org/2000/svg">
<path d="M9.71799 0C10.1499 0 10.5818 0 11.0137 0C11.3603 0.0448107 11.7086 0.077204 12.0525 0.136052C14.0209 0.470782 15.761 1.29303 17.2473 2.62602C19.0338 4.22786 20.1513 6.21249 20.5724 8.5799C20.6394 8.95675 20.6793 9.33845 20.7317 9.71799C20.7317 10.1499 20.7317 10.5818 20.7317 11.0137C20.7204 11.0655 20.702 11.1174 20.6982 11.1697C20.5762 12.7689 20.1173 14.266 19.2826 15.6341C17.6376 18.3297 15.261 19.9867 12.1507 20.573C11.775 20.6437 11.3927 20.6799 11.0137 20.7317C10.5818 20.7317 10.1499 20.7317 9.71799 20.7317C9.46532 20.7004 9.21157 20.6734 8.95944 20.6372C6.89653 20.3419 5.07387 19.5153 3.51575 18.1316C1.71576 16.5325 0.591717 14.5446 0.161427 12.1718C0.091781 11.7885 0.052909 11.3997 0 11.0137C0 10.5818 0 10.1499 0 9.71799C0.0313135 9.46478 0.0572281 9.21103 0.0939405 8.95836C0.420033 6.69893 1.37294 4.744 2.97262 3.11515C4.5248 1.5349 6.39551 0.543667 8.58044 0.159267C8.95728 0.0928608 9.33899 0.0523692 9.71799 0ZM13.1171 4.7413C13.0907 4.73212 13.0718 4.7197 13.0529 4.7197C12.3046 4.72564 11.5525 4.68677 10.8091 4.75102C9.89237 4.83038 9.23101 5.32816 8.93785 6.21897C8.82393 6.56504 8.78722 6.94296 8.76184 7.30955C8.73269 7.73174 8.75483 8.15717 8.75483 8.6042C8.35585 8.6042 7.97469 8.6042 7.58435 8.6042C7.58435 9.32387 7.58435 10.0209 7.58435 10.7373C7.97901 10.7373 8.36017 10.7373 8.76077 10.7373C8.76077 12.7441 8.76077 14.7314 8.76077 16.7279C9.59975 16.7279 10.4188 16.7279 11.2626 16.7279C11.2626 14.7228 11.2626 12.7311 11.2626 10.7206C11.8376 10.7206 12.3877 10.7206 12.9444 10.7206C13.0167 10.0101 13.0874 9.31739 13.1603 8.60204C12.5103 8.60204 11.8921 8.60204 11.2567 8.60204C11.2567 8.21332 11.2561 7.84349 11.2567 7.47367C11.2572 6.9327 11.4111 6.78046 11.9585 6.77992C12.3408 6.77992 12.7235 6.77992 13.1166 6.77992C13.1171 6.08346 13.1171 5.41184 13.1171 4.7413Z" fill="#F15A29"/>
</svg>
