<svg width="23" height="22" viewBox="0 0 23 22" fill="none" xmlns="http://www.w3.org/2000/svg">
<path d="M11.4794 1.88771e-06C11.1253 0.00474092 10.8834 0.181439 10.722 0.513171C9.74364 2.51575 8.7545 4.51291 7.7782 6.51617C7.69442 6.68813 7.59848 6.75989 7.40727 6.78697C5.2486 7.09433 3.09128 7.4132 0.933958 7.72936C0.842071 7.7429 0.750183 7.75644 0.659647 7.77539C0.027923 7.91079 -0.213958 8.63384 0.218452 9.11654C0.421145 9.34266 0.647488 9.54711 0.864368 9.75969C2.28186 11.1476 3.69935 12.5361 5.12023 13.9219C5.23036 14.0289 5.28306 14.1203 5.25265 14.2922C4.86281 16.5318 4.4858 18.7733 4.10339 21.0135C4.04528 21.3547 4.1419 21.6377 4.41824 21.8402C4.70471 22.05 5.0101 22.0433 5.32224 21.8781C7.31065 20.8267 9.30042 19.78 11.2868 18.7253C11.4368 18.6454 11.5496 18.64 11.7043 18.7219C13.6678 19.7658 15.6366 20.7996 17.602 21.8408C17.9128 22.0053 18.2189 22.0751 18.5324 21.8726C18.8303 21.6804 18.96 21.3994 18.9006 21.0467C18.6026 19.2804 18.3013 17.5141 18.0013 15.7485C17.9189 15.2651 17.8473 14.7804 17.75 14.3004C17.7162 14.1345 17.7567 14.0377 17.8716 13.926C19.4316 12.4061 20.9876 10.8815 22.545 9.35755C22.5754 9.32777 22.6038 9.29662 22.6355 9.26887C22.9369 9.00957 23.0835 8.69409 22.9511 8.30007C22.8159 7.89929 22.4842 7.78487 22.1031 7.73003C19.9276 7.41861 17.754 7.09704 15.5785 6.78765C15.3967 6.76192 15.3069 6.68474 15.2278 6.52429C14.2495 4.52171 13.261 2.52455 12.2834 0.521295C12.1165 0.180762 11.8699 -0.000675116 11.4794 1.88771e-06Z" fill="#F15A29"/>
</svg>
