<svg width="21" height="21" viewBox="0 0 21 21" fill="none" xmlns="http://www.w3.org/2000/svg">
<path d="M10.2683 1.75932e-06C15.9306 0.00328552 20.524 4.60054 20.5235 10.2634C20.5224 15.9328 15.9136 20.5333 10.2442 20.5235C4.58358 20.5136 -0.00437521 15.9125 3.13112e-06 10.2492C0.00438147 4.59069 4.60711 -0.003282 10.2683 1.75932e-06ZM3.94051 10.2606C3.93449 10.2606 3.92902 10.2606 3.923 10.2606C3.923 11.0334 3.91752 11.8062 3.92573 12.579C3.92847 12.8723 3.94106 13.1679 3.98484 13.4574C4.17694 14.7183 4.78881 15.6805 5.99778 16.1944C6.55876 16.433 7.15203 16.5315 7.75788 16.5343C9.35816 16.5408 10.9584 16.5408 12.5587 16.5332C12.9057 16.5315 13.2576 16.5113 13.5991 16.4538C14.8836 16.2376 15.8381 15.582 16.3164 14.3303C16.5162 13.8077 16.5988 13.2615 16.5994 12.7032C16.6005 11.1232 16.6027 9.54369 16.5972 7.96366C16.5961 7.66374 16.5824 7.36054 16.5375 7.065C16.3372 5.7526 15.6843 4.77568 14.4108 4.28147C13.8958 4.08116 13.355 3.99196 12.8056 3.98922C11.1095 3.98156 9.41344 3.97991 7.71738 3.98977C7.08416 3.9936 6.46517 4.10634 5.88668 4.3778C4.60383 4.97927 4.03519 6.06236 3.95146 7.41035C3.89344 8.35716 3.94051 9.31055 3.94051 10.2606Z" fill="#F15A29"/>
<path d="M10.2581 5.17506C11.1065 5.17506 11.9548 5.16685 12.8025 5.17944C13.074 5.18327 13.3498 5.21775 13.6141 5.27959C14.6217 5.51602 15.2681 6.25213 15.3901 7.28432C15.4175 7.51473 15.4312 7.74788 15.4317 7.97939C15.435 9.54574 15.4448 11.1126 15.4251 12.679C15.4202 13.0555 15.3622 13.4479 15.2423 13.8037C14.9271 14.739 14.22 15.2441 13.259 15.2983C12.0653 15.3662 10.8667 15.3585 9.67036 15.3635C8.89813 15.3667 8.12206 15.3755 7.35367 15.3082C5.96299 15.1867 5.13494 14.3187 5.10429 12.911C5.06598 11.14 5.08076 9.36732 5.10758 7.59628C5.11305 7.23178 5.22415 6.85032 5.36809 6.51045C5.71617 5.68623 6.40411 5.28342 7.26555 5.22048C8.09634 5.15973 8.93261 5.17177 9.76668 5.15371C9.93087 5.14988 10.0951 5.15317 10.2592 5.15317C10.2581 5.16083 10.2581 5.16794 10.2581 5.17506ZM13.5972 10.2813C13.6016 8.42598 12.1239 6.93132 10.2806 6.92639C8.41706 6.92147 6.93061 8.39971 6.92568 10.2627C6.92076 12.1054 8.40556 13.5886 10.2631 13.5973C12.0943 13.6056 13.5934 12.1147 13.5972 10.2813ZM13.6141 7.60613C13.9808 7.60832 14.2808 7.31388 14.2829 6.94993C14.2857 6.58379 13.9929 6.28387 13.6278 6.2784C13.2513 6.27293 12.947 6.57175 12.9492 6.94555C12.9514 7.31388 13.2431 7.60394 13.6141 7.60613Z" fill="#F15A29"/>
<path d="M12.4133 10.2541C12.4204 11.4434 11.4638 12.4066 10.269 12.4132C9.07976 12.4198 8.11598 11.4625 8.10941 10.2689C8.10284 9.08073 9.06115 8.1164 10.2542 8.11038C11.4441 8.10436 12.4062 9.05939 12.4133 10.2541Z" fill="#F15A29"/>
</svg>
