<svg width="26" height="19" viewBox="0 0 26 19" fill="none" xmlns="http://www.w3.org/2000/svg">
<path d="M0 5.34479C1.6313 6.33779 3.26408 7.32857 4.8939 8.32305C7.22941 9.74775 9.56714 11.1695 11.896 12.6046C12.518 12.9881 13.1 12.9837 13.7228 12.6031C17.5933 10.235 21.4705 7.87727 25.3455 5.51659C25.4299 5.46475 25.5158 5.41588 25.6462 5.33887C25.6462 5.45735 25.6462 5.5425 25.6462 5.6284C25.6462 8.7429 25.6469 11.8574 25.6462 14.9719C25.6454 17.2704 24.0074 18.9024 21.6912 18.9032C16.2227 18.9054 10.7549 18.9069 5.28636 18.901C4.56142 18.9002 3.82612 18.9284 3.11376 18.8202C1.51727 18.5788 0.296196 17.2926 0.0481319 15.7006C0.040727 15.6539 0.0162908 15.6102 0 15.565C0 12.1588 0 8.75179 0 5.34479Z" fill="#F15A29"/>
<path d="M12.8296 0.00144627C15.7931 0.00144627 18.7558 -0.00151569 21.7192 0.00292725C23.2409 0.00514872 24.3976 0.659002 25.1536 1.98744C25.2802 2.20959 25.3491 2.46358 25.4542 2.69905C25.5416 2.89528 25.4853 3.00266 25.2987 3.11669C21.7014 5.30632 18.1086 7.5041 14.515 9.70039C14.0166 10.0047 13.5153 10.3046 13.0221 10.6164C12.8926 10.6986 12.8 10.7045 12.6652 10.6223C8.55105 8.10908 4.43541 5.6003 0.316056 3.09596C0.155369 2.99821 0.130193 2.90861 0.179806 2.7346C0.646315 1.09145 2.11693 0.00514872 3.91484 0.00218676C6.88643 -0.00225618 9.85802 0.00144627 12.8296 0.00144627Z" fill="#F15A29"/>
</svg>
