<svg width="20" height="20" viewBox="0 0 20 20" fill="none" xmlns="http://www.w3.org/2000/svg">
<path d="M8.79926 11.16C6.27089 8.63164 3.74153 6.10425 1.21512 3.57391C0.516639 2.87445 0.516639 1.82501 1.20481 1.15843C1.81936 0.563518 2.81382 0.539957 3.45291 1.10542C3.51132 1.15696 3.56532 1.21291 3.62078 1.26838C8.65937 6.30697 13.6975 11.3451 18.7361 16.3836C19.3761 17.0237 19.4866 17.8479 19.0296 18.5542C18.4798 19.4034 17.2861 19.5653 16.5346 18.8894C16.3996 18.7682 16.2744 18.6352 16.1458 18.5066C13.697 16.0577 11.2481 13.6089 8.79926 11.16Z" fill="#2C2C2C"/>
<path d="M11.1949 11.16C13.7233 8.63164 16.2526 6.10425 18.779 3.57391C19.4775 2.87445 19.4775 1.82501 18.7893 1.15843C18.1748 0.563518 17.1803 0.539957 16.5412 1.10542C16.4828 1.15696 16.4288 1.21291 16.3734 1.26838C11.3348 6.30697 6.29668 11.3451 1.25809 16.3836C0.618021 17.0237 0.50758 17.8479 0.964562 18.5542C1.51432 19.4034 2.70807 19.5653 3.45956 18.8894C3.59454 18.7682 3.71971 18.6352 3.84831 18.5066C6.29717 16.0577 8.74602 13.6089 11.1949 11.16Z" fill="#EB6A24"/>
</svg>
