<svg width="24" height="24" viewBox="0 0 24 24" fill="none" xmlns="http://www.w3.org/2000/svg">
<path d="M17.9915 24C16.8292 23.8947 15.8251 23.6288 14.8449 23.2669C12.5037 22.4031 10.4273 21.0908 8.50576 19.5192C5.82624 17.3272 3.58842 14.7579 1.89437 11.7328C1.01498 10.1625 0.355112 8.50765 0.0441915 6.72282C-0.0498853 6.18097 -0.00584933 5.69777 0.294396 5.22057C1.39863 3.46906 2.66967 1.86151 4.2643 0.525879C4.36638 0.44057 4.48048 0.369923 4.58923 0.292611C5.21508 -0.150599 5.71415 -0.0739534 6.37135 0.411911C6.49012 0.499887 6.5942 0.615854 6.68027 0.736487C7.70644 2.18475 8.69325 3.65901 9.47122 5.25989C9.64136 5.60979 9.77013 5.98169 9.8929 6.35159C10.0444 6.80746 9.95294 7.24401 9.62868 7.58591C9.2397 7.9958 8.81401 8.37169 8.38767 8.74359C7.83788 9.22412 7.82387 9.21946 8.11611 9.90127C9.36446 12.8131 11.4668 14.8432 14.4206 16.0002C14.6795 16.1015 14.8423 16.0949 15.0298 15.8556C15.378 15.4097 15.763 14.9918 16.1467 14.5746C16.6464 14.0301 17.2622 13.8615 17.9381 14.1734C18.7908 14.5673 19.6442 14.9712 20.4508 15.4491C21.403 16.0129 22.3097 16.6547 23.2291 17.2732C23.6174 17.5345 23.8516 17.9097 23.9657 18.3669C24.0278 18.6175 24.0091 18.8528 23.881 19.066C23.7148 19.344 23.5494 19.6299 23.3372 19.8705C21.9654 21.4274 20.3754 22.7237 18.5786 23.7641C18.3678 23.8854 18.1236 23.948 17.9915 24Z" fill="#F15A29"/>
</svg>
