<svg width="34" height="40" viewBox="0 0 34 40" fill="none" xmlns="http://www.w3.org/2000/svg">
<path d="M33 18.2679C34.3333 19.0377 34.3333 20.9623 33 21.7321L3 39.0526C1.66667 39.8224 0 38.8601 0 37.3205L0 2.67949C0 1.13989 1.66667 0.177642 3 0.947442L33 18.2679Z" fill="#1F1F1F"/>
</svg>
