<svg width="10" height="20" viewBox="0 0 10 20" fill="none" xmlns="http://www.w3.org/2000/svg">
<path d="M7.9971 9.97208C7.8937 9.87511 7.81043 9.80541 7.73687 9.72587C5.27128 7.0365 2.805 4.34788 0.347735 1.65018C0.197148 1.48503 0.0743199 1.25321 0.0201921 1.02897C-0.0651632 0.676703 0.129836 0.300947 0.421293 0.119888C0.71622 -0.0634442 1.08124 -0.0354119 1.3491 0.196403C1.42335 0.260797 1.48928 0.338068 1.55659 0.411552C4.24216 3.34259 6.92703 6.27438 9.6126 9.20542C10.1282 9.76829 10.1289 10.2266 9.61607 10.7865C6.91801 13.7311 4.22273 16.6781 1.51842 19.6152C1.36714 19.7796 1.15618 19.9152 0.950774 19.9765C0.630171 20.0727 0.283198 19.8621 0.11457 19.5447C-0.0547532 19.2265 -0.031853 18.8235 0.179106 18.5319C0.242949 18.4432 0.319977 18.3652 0.393536 18.2849C2.85219 15.6008 5.31014 12.9167 7.76879 10.2327C7.83471 10.1607 7.89856 10.085 7.9971 9.97208Z" fill="#EB6A24"/>
</svg>
