<svg width="128" height="37" viewBox="0 0 128 37" fill="none" xmlns="http://www.w3.org/2000/svg">
<g opacity="0.3">
<path d="M13.3367 0.693089C11.1243 1.17574 8.69288 4.20329 7.66335 7.75736L7.31287 8.98593L5.73572 9.46858C3.06331 10.2803 3.04141 10.3023 2.75664 12.2548C2.16521 16.138 0.325195 30.6175 0.325195 31.2976C0.325195 31.9558 0.39091 32.0216 1.13568 32.1313C1.59568 32.1971 6.30524 32.9869 11.6062 33.9083C16.8853 34.8298 21.3101 35.5757 21.3977 35.5757C21.4854 35.5757 21.573 28.6211 21.573 20.1089V4.64206L20.9816 4.77369C20.4339 4.88339 20.3025 4.77369 19.8425 3.8742C19.1634 2.60176 18.2872 1.85584 17.2358 1.65839C16.7977 1.59258 16.1844 1.37319 15.8996 1.17574C15.1548 0.715027 14.1472 0.517578 13.3367 0.693089ZM13.972 2.95278C12.7015 4.29104 12.4386 4.75175 11.9348 6.39716C11.5624 7.60379 11.5624 7.60379 10.1605 8.08644C9.39384 8.34971 8.73669 8.48134 8.69288 8.39359C8.56145 8.04257 9.56908 5.76094 10.4015 4.44461C11.5405 2.68951 12.7672 1.79002 14.0815 1.79002H15.0672L13.972 2.95278ZM16.3596 5.12471L16.4691 6.15583L14.7167 6.7043C13.731 7.01144 12.8986 7.20889 12.8548 7.16502C12.6139 6.92369 14.0815 4.31298 14.8482 3.61094L15.7463 2.79921L16.0091 3.45737C16.1406 3.80839 16.3158 4.55431 16.3596 5.12471ZM17.8711 3.10635C18.3968 3.39155 19.273 5.0589 19.0101 5.30022C18.9225 5.40992 18.572 5.56349 18.2434 5.6293C17.6301 5.78288 17.652 5.84869 17.3015 3.6987C17.1701 2.82114 17.2139 2.77727 17.8711 3.10635ZM15.7244 11.5747C16.1625 11.6625 16.5349 11.838 16.5349 11.9696C16.5349 12.1012 16.3377 13.0007 16.0748 13.988L15.6148 15.7431L13.7529 15.6553C12.0662 15.5676 11.8691 15.5895 11.3872 16.0502C11.0586 16.3573 10.8396 16.8181 10.8396 17.1471C10.8396 17.8053 11.2339 18.2002 13.1834 19.5385C15.1548 20.8987 15.7463 21.864 15.8339 23.8604C15.9434 25.8349 15.6367 26.8221 14.4977 28.0507C12.9643 29.718 10.3358 30.0691 7.77288 28.9721C6.08619 28.2481 5.91096 27.941 6.23953 26.3614C6.39286 25.6374 6.59001 25.0012 6.67763 24.9354C6.74334 24.8915 7.31287 25.089 7.9043 25.3742C9.83194 26.3395 11.3434 25.9885 11.3434 24.6063C11.3434 24.0359 11.1462 23.7068 10.3796 23.0048C7.8824 20.767 7.55383 20.3941 7.31287 19.4946C6.63382 16.9497 7.83859 13.9441 10.1167 12.6058C11.7377 11.6625 13.8405 11.2676 15.7244 11.5747Z" fill="black"/>
<path d="M22.4492 20.2622V35.5096L25.5378 34.7857C29.415 33.8423 30.9483 33.4035 31.1017 33.1622C31.2331 32.9428 28.6483 15.4357 27.3559 7.86683L27.2026 7.0551H25.8883C24.574 7.0551 24.5083 7.03316 23.5007 6.02398L22.4492 4.99286V20.2622Z" fill="black"/>
<path d="M110.003 7.58171C107.835 8.3715 106.367 10.1485 105.732 12.7154L105.359 14.295H104.418C103.607 14.295 103.454 14.3827 103.278 14.8654C103.147 15.1945 103.038 15.8965 102.994 16.4669L102.95 17.4761L103.782 17.5419C104.374 17.5858 104.593 17.7174 104.593 17.9807C104.593 18.1781 104.155 20.7011 103.607 23.575C103.059 26.449 102.621 28.9939 102.621 29.2352C102.621 29.6301 102.753 29.674 104.658 29.6082L106.674 29.5424L107.681 24.3868C108.251 21.5567 108.777 18.8582 108.842 18.3975L108.996 17.5858H110.244C110.923 17.5858 111.602 17.498 111.756 17.4103C112.084 17.2128 112.566 15.0628 112.391 14.624C112.303 14.3827 111.909 14.295 110.945 14.295H109.587L109.74 13.571C110.179 11.6184 111.011 10.8067 112.61 10.7848H113.749L114.121 9.22711C114.45 7.91079 114.472 7.62559 114.209 7.47201C113.749 7.18681 110.945 7.25263 110.003 7.58171Z" fill="black"/>
<path d="M53.0723 7.88878C52.5466 7.93266 52.218 8.08623 52.1523 8.32756C52.0866 8.52501 51.1885 13.1321 50.159 18.5729C49.1294 23.9918 48.2313 28.7306 48.1656 29.0597L48.0342 29.674L50.1809 29.6081L52.3275 29.5423L53.138 25.3081C53.6199 22.8949 54.1895 20.6133 54.4961 19.9332C55.3942 17.9587 56.7085 17.0372 57.8257 17.5418C58.8114 18.0025 58.7895 18.6168 57.3657 26.3173C57.0809 27.9189 56.84 29.3449 56.84 29.4546C56.84 29.5643 57.76 29.652 58.899 29.652C60.6952 29.652 60.98 29.6081 61.0895 29.2571C61.4181 28.1382 62.7762 20.1964 62.9076 18.7265C63.061 16.6862 62.7981 15.7209 61.8562 14.8214C61.3086 14.2949 61.0019 14.1852 59.7314 14.1194C58.0009 14.0316 57.0152 14.3607 55.7228 15.5454C54.9123 16.2913 54.8466 16.3133 54.9561 15.8087C55.5257 13.2638 56.4457 8.13011 56.3581 8.04235C56.2047 7.88878 54.0799 7.80103 53.0723 7.88878Z" fill="black"/>
<path d="M99.8394 7.8889C99.007 8.02054 98.0212 9.3588 98.0212 10.346C98.0212 11.5966 98.8755 12.5399 100.036 12.5399C100.737 12.5399 101.066 12.3863 101.657 11.794C102.293 11.1578 102.402 10.8945 102.402 10.0608C102.402 9.44655 102.249 8.89809 102.03 8.61288C101.592 8.10829 100.584 7.75727 99.8394 7.8889Z" fill="black"/>
<path d="M43.0397 14.0757C41.0026 14.4267 39.2721 15.5675 38.5711 17.0155C38.1111 17.9808 38.1111 19.8236 38.593 20.8109C38.7902 21.2277 39.4911 21.9736 40.1702 22.4782C42.2512 23.992 42.6016 24.3869 42.6016 25.1767C42.6016 26.5149 41.0464 26.9537 38.7464 26.2517C38.1549 26.0762 37.5635 25.9226 37.4102 25.9226C37.1473 25.9226 36.4683 27.6996 36.4683 28.4675C36.4683 29.1256 37.4102 29.4328 39.7759 29.5864C44.0474 29.8496 46.7417 28.1165 46.9388 24.9353C47.0703 22.9389 46.4788 22.0833 43.4778 19.9114C42.3169 19.0777 42.0978 18.3098 42.8426 17.5639C43.2588 17.1471 43.4778 17.1032 44.7702 17.2129C45.5588 17.2787 46.435 17.4104 46.676 17.4762C47.0922 17.6078 47.1798 17.4762 47.5303 16.1598C47.7712 15.3042 47.8588 14.6461 47.7274 14.5144C47.5303 14.317 44.9674 13.8343 44.354 13.8782C44.1788 13.9002 43.5874 13.9879 43.0397 14.0757Z" fill="black"/>
<path d="M71.341 14.0975C69.8296 14.3607 68.6248 14.975 67.3324 16.2036C65.2515 18.1561 64.1562 20.9862 64.3315 24.0138C64.441 26.1638 64.9448 27.2607 66.3029 28.4235C68.6248 30.4199 72.6991 30.0689 75.3496 27.6337C77.4963 25.6811 78.5478 23.1801 78.5697 20.0867C78.5697 15.699 75.7658 13.3735 71.341 14.0975ZM73.3344 17.5857C74.1449 18.2439 74.3858 19.3189 74.123 21.1837C73.9039 22.7413 73.1153 24.8036 72.4363 25.5714C71.3848 26.7342 69.6105 26.6903 68.9972 25.4617C67.9896 23.5531 69.2382 18.8801 71.0563 17.6515C71.9763 17.0373 72.6115 17.0153 73.3344 17.5857Z" fill="black"/>
<path d="M88.2297 14.3171C87.8574 14.4268 86.9812 15.0191 86.3021 15.6334L85.0973 16.7523L85.2288 15.5237L85.3821 14.2951H83.4983H81.6144L81.5049 14.9972C80.8259 19.0778 80.0592 23.3778 79.0078 28.8844C77.5839 36.3216 77.5182 35.7512 79.7306 35.7731C81.5487 35.7951 81.9868 35.6415 82.1183 34.9395C82.184 34.6323 82.4468 33.2063 82.7097 31.8022C83.1478 29.3232 83.1916 29.2354 83.6297 29.4767C83.8707 29.6084 84.8345 29.7181 85.7764 29.7181C87.7478 29.7181 89.3031 29.1038 90.7488 27.8094C93.9688 24.8915 95.1736 18.4854 93.0488 15.6334C92.0412 14.3171 90.0917 13.7905 88.2297 14.3171ZM88.9745 17.8931C89.544 18.3977 89.5878 18.5293 89.5659 20.1528C89.5221 24.2114 86.8935 27.4145 84.5497 26.2956L83.8268 25.9446L84.243 23.6849C84.9002 19.9553 85.7107 18.3099 87.1564 17.6737C88.0983 17.2788 88.2735 17.3007 88.9745 17.8931Z" fill="black"/>
<path d="M97.2546 14.5582C97.1232 14.9312 94.8231 27.2388 94.626 28.599L94.4727 29.6521H96.5755C97.7365 29.6521 98.6784 29.6302 98.6784 29.5863C98.6784 29.5643 99.3136 26.1858 100.102 22.0832C101.176 16.423 101.46 14.6021 101.241 14.4705C100.781 14.1853 97.3641 14.2511 97.2546 14.5582Z" fill="black"/>
<path d="M113.683 15.6333C114.735 20.723 116.027 28.3797 115.896 28.8843C115.698 29.6741 114.34 31.1001 113.157 31.7802C112.61 32.0873 111.931 32.4822 111.668 32.6358L111.186 32.9429L111.602 34.1276C111.821 34.7638 112.128 35.5536 112.303 35.8827L112.61 36.4531L113.946 35.795C116.29 34.6103 118.349 32.4603 120.342 29.0817C120.846 28.2042 122.642 24.6062 124.329 21.0741L127.374 14.6241L125.819 14.4266C123.19 14.1195 123.102 14.1853 121.876 17.3664C121.284 18.8802 120.43 21.1179 119.992 22.3685C119.554 23.597 119.159 24.5623 119.116 24.5185C119.05 24.4746 118.787 22.2368 118.502 19.5603C118.196 16.8618 117.933 14.646 117.911 14.6021C117.867 14.5802 116.838 14.4705 115.611 14.3828L113.398 14.2292L113.683 15.6333Z" fill="black"/>
</g>
</svg>
