<svg width="55" height="58" viewBox="0 0 55 58" fill="none" xmlns="http://www.w3.org/2000/svg">
<path d="M40.5856 0C40.7321 0.188802 40.936 0.357969 41.0115 0.570938C41.2381 1.20833 40.8046 1.6962 40.0328 1.69771C36.2386 1.70073 32.4459 1.6962 28.6518 1.70375C28.2575 1.70375 27.8573 1.72641 27.4706 1.7974C25.3183 2.1901 23.7233 4.00109 23.6946 6.19271C23.6538 9.40083 23.6734 12.609 23.69 15.8171C23.6916 16.0195 23.835 16.2808 23.9952 16.4152C25.3258 17.5314 25.9678 18.9512 25.9647 20.6806C25.9602 23.6244 25.9723 26.5682 25.9542 29.5135C25.9511 29.9138 26.0493 30.1796 26.445 30.2642C27.1398 30.4137 27.8377 30.6509 28.537 30.66C31.801 30.7022 35.0665 30.6781 38.332 30.6796C39.2851 30.6796 39.5358 30.9333 39.5388 31.8879C39.5419 32.8108 39.5388 33.7352 39.5388 34.7849C39.7745 34.6172 39.9346 34.51 40.0871 34.3937C41.5266 33.2941 42.972 32.2036 44.3964 31.0844C44.777 30.7853 45.1667 30.6569 45.6424 30.6735C46.378 30.6977 47.1151 30.6826 47.8507 30.6796C50.7341 30.6675 52.7187 28.6904 52.7233 25.7979C52.7308 20.3619 52.7263 14.9274 52.7263 9.49146C52.7263 8.47193 52.7369 7.4524 52.7233 6.43437C52.6885 3.68693 50.6948 1.71885 47.9368 1.70073C47.2767 1.6962 46.6152 1.69318 45.9551 1.70224C45.4884 1.70828 45.0186 1.71583 44.8178 1.18266C44.632 0.69026 44.8616 0.314167 45.2286 0C46.4369 0 47.6453 0 48.8536 0C49.3384 0.140469 49.8354 0.249219 50.3081 0.424427C52.7369 1.32161 54.4029 3.60839 54.4119 6.1912C54.4376 12.8536 54.4467 19.5176 54.4089 26.1801C54.3908 29.5589 51.663 32.2278 48.2117 32.3728C48.0803 32.3788 47.9443 32.3969 47.8159 32.3758C46.1696 32.11 44.8616 32.696 43.6275 33.788C42.3044 34.9616 40.8257 35.96 39.421 37.043C39.0918 37.2967 38.7685 37.4931 38.3366 37.2846C37.8849 37.0671 37.8306 36.682 37.8351 36.2424C37.8472 34.9813 37.8396 33.7216 37.8396 32.4377C33.8733 32.1598 29.925 32.7428 25.9934 32.051C25.9934 33.4014 25.9934 34.8242 25.9934 36.3134C26.2109 36.3134 26.4133 36.3134 26.6157 36.3134C28.7303 36.3134 30.8479 36.389 32.9565 36.2953C35.6918 36.173 37.6463 38.058 37.4802 40.8553C37.4122 42.0032 37.4817 43.1571 37.4605 44.3081C37.4484 45.0029 36.95 45.3744 36.3368 45.1841C35.8776 45.0421 35.7688 44.6796 35.7688 44.2507C35.7704 43.0242 35.7719 41.7963 35.7673 40.5698C35.7613 38.8796 34.9109 38.0172 33.2283 38.0157C29.7559 38.0096 26.2819 38.0111 22.8095 38.0157C21.1118 38.0172 20.2554 38.866 20.2523 40.5486C20.2478 44.0211 20.2463 47.4951 20.2523 50.9675C20.2554 52.6063 21.1344 53.4718 22.7793 53.4733C24.554 53.4748 26.3272 53.4733 28.102 53.4733C29.1759 53.4733 29.3888 53.6878 29.3934 54.7602C29.3934 54.9293 29.3934 55.0985 29.3934 55.3553C29.5641 55.2571 29.6894 55.2012 29.7982 55.1211C30.1169 54.8855 30.4537 54.6665 30.7361 54.3931C31.4838 53.6696 32.3326 53.3887 33.3945 53.4491C34.8112 53.5307 35.722 52.5731 35.7658 51.1488C35.7794 50.6775 35.7553 50.2047 35.7824 49.7335C35.8142 49.2003 36.1117 48.9315 36.6102 48.9284C37.1101 48.9254 37.4484 49.1943 37.4469 49.7199C37.4439 50.5642 37.4847 51.4357 37.3004 52.2483C36.9077 53.9853 35.3656 55.177 33.5878 55.1498C32.7963 55.1378 32.1907 55.3628 31.6031 55.8658C30.7346 56.6104 29.8118 57.2916 28.9116 58C28.685 58 28.4584 58 28.2319 58C27.7923 57.6632 27.6413 57.2206 27.6851 56.6708C27.7229 56.2026 27.6926 55.7298 27.6926 55.1725C27.4631 55.1725 27.2637 55.1725 27.0643 55.1725C25.5917 55.1725 24.119 55.177 22.6463 55.171C20.2267 55.1619 18.5697 53.5171 18.5546 51.0702C18.5365 48.1823 18.5501 45.2929 18.5501 42.4049C18.5501 42.2207 18.5501 42.0364 18.5501 41.7192C18.2963 41.902 18.1362 42.0107 17.9822 42.1285C16.8161 43.0272 15.6471 43.9229 14.4871 44.8277C14.1578 45.0844 13.827 45.2717 13.3996 45.0754C12.9449 44.8654 12.8906 44.4712 12.8951 44.0332C12.9057 43.1118 12.8981 42.1905 12.8981 41.186C12.6187 41.186 12.3997 41.186 12.1807 41.186C9.91505 41.186 7.64942 41.2011 5.3838 41.1815C2.6439 41.1573 0.580671 39.4868 0.0822338 36.9176C0.0293692 36.6412 0.00822338 36.3557 0.00671296 36.0733C0.000671297 33.2413 -0.00234954 30.4092 0.00218171 27.5772C0.00369213 26.8915 0.354109 26.5501 0.953744 26.6151C1.43406 26.6664 1.68932 26.9806 1.69536 27.5787C1.70593 28.5227 1.69838 29.4667 1.69838 30.4107C1.69838 32.1855 1.69536 33.9602 1.69989 35.7349C1.70593 38.0398 3.13177 39.4747 5.44723 39.4853C8.0527 39.4974 10.6582 39.4868 13.2636 39.4883C14.3859 39.4883 14.5928 39.6953 14.5943 40.8039C14.5958 41.3477 14.5943 41.8914 14.5943 42.5243C14.7877 42.4049 14.9145 42.3415 15.0248 42.2569C16.1319 41.4066 17.2421 40.5577 18.3371 39.6907C18.4987 39.5623 18.6317 39.3539 18.6951 39.1545C19.2283 37.481 20.571 36.4192 22.3337 36.3316C22.9515 36.3014 23.5707 36.327 24.2549 36.327C24.2549 36.0446 24.2549 35.8422 24.2549 35.6413C24.2549 30.6766 24.258 25.7103 24.2534 20.7456C24.2519 18.4618 22.7853 16.9967 20.494 16.9952C15.4719 16.9907 10.4497 16.9907 5.4276 16.9952C3.15895 16.9967 1.71046 18.4467 1.69687 20.7048C1.69385 21.1957 1.70593 21.6866 1.69385 22.1774C1.67723 22.8118 1.37062 23.1351 0.820828 23.1275C0.281609 23.1199 -0.00537037 22.8224 0.00369213 22.2001C0.0172859 21.2772 -0.0385996 20.3347 0.126036 19.4376C0.564057 17.0586 2.63635 15.3247 5.05604 15.3096C10.3425 15.2779 15.629 15.2975 20.9154 15.3035C21.2326 15.3035 21.5498 15.3624 21.9349 15.4017C21.9455 15.1903 21.9652 14.9939 21.9652 14.7976C21.9667 12.1166 21.9651 9.43557 21.9667 6.75458C21.9818 3.17188 23.9045 0.811094 27.4087 0.0770313C27.4616 0.0664583 27.5084 0.0271875 27.5567 0C31.9007 0 36.2431 0 40.5856 0Z" fill="#EB6A24"/>
<path d="M15.9084 27.4353C15.7921 28.1241 15.6833 28.769 15.5564 29.5182C16.2709 29.5182 16.94 29.5182 17.6076 29.5182C17.9474 29.5182 18.2873 29.5061 18.6256 29.5243C19.189 29.5545 19.5092 29.8565 19.5198 30.3429C19.5319 30.8489 19.1981 31.1902 18.612 31.2084C17.8206 31.231 17.0276 31.2159 16.2346 31.2174C15.2574 31.2174 15.2604 31.2174 15.1078 32.1841C14.9991 32.8728 14.8919 33.5616 14.7635 34.2473C14.6577 34.8107 14.2665 35.0932 13.7666 35.0071C13.2863 34.9225 13.0114 34.489 13.1005 33.9362C13.2334 33.0994 13.3739 32.2626 13.5098 31.4259C13.5159 31.3896 13.5023 31.3519 13.4932 31.2658C12.8528 31.2658 12.2048 31.2658 11.504 31.2658C11.3454 32.2052 11.1853 33.1462 11.0252 34.0887C10.9104 34.7745 10.5358 35.1068 9.98753 35.0056C9.47852 34.9119 9.23686 34.4724 9.3441 33.8138C9.48003 32.9786 9.62503 32.1448 9.78061 31.2174C9.14321 31.2174 8.54509 31.2189 7.94847 31.2174C7.70378 31.2159 7.45607 31.228 7.21441 31.1993C6.71748 31.1389 6.40331 30.7839 6.44259 30.3218C6.48337 29.8399 6.75977 29.5499 7.24462 29.5348C8.01795 29.5107 8.79128 29.5061 9.56462 29.5258C9.92863 29.5348 10.1114 29.4487 10.1431 29.0439C10.1824 28.541 10.2987 28.044 10.3984 27.4369C9.7066 27.4369 9.07675 27.4369 8.44691 27.4369C8.0693 27.4369 7.6917 27.4474 7.31561 27.4308C6.77337 27.4067 6.43956 27.0789 6.43654 26.5971C6.43352 26.1213 6.77488 25.7588 7.30654 25.7467C8.21128 25.724 9.11753 25.7392 10.0238 25.7392C10.2277 25.7392 10.4331 25.7392 10.6793 25.7392C10.8349 24.8102 10.9829 23.9221 11.1324 23.0325C11.1581 22.8845 11.1793 22.7334 11.2215 22.5899C11.365 22.1036 11.7351 21.8619 12.2033 21.9616C12.6882 22.0643 12.9177 22.3996 12.8588 22.8709C12.7395 23.8043 12.5779 24.7317 12.4223 25.7376C13.0356 25.7376 13.6156 25.7618 14.1925 25.718C14.3134 25.7089 14.4871 25.4718 14.5173 25.3147C14.6819 24.484 14.7997 23.6427 14.9538 22.8089C15.0746 22.1504 15.4432 21.8574 15.9809 21.9601C16.4838 22.0552 16.7164 22.4721 16.6152 23.0929C16.4763 23.9478 16.3403 24.8012 16.1893 25.7376C16.9294 25.7376 17.6212 25.7331 18.3129 25.7407C18.5184 25.7422 18.7344 25.7407 18.9277 25.7981C19.3657 25.9295 19.5726 26.2557 19.5122 26.7058C19.4503 27.1574 19.1618 27.4142 18.7057 27.4263C17.9897 27.4444 17.2723 27.4353 16.5548 27.4369C16.3494 27.4353 16.144 27.4353 15.9084 27.4353ZM14.1714 27.4369C13.5431 27.4369 12.9646 27.4248 12.3876 27.4489C12.2819 27.4535 12.1142 27.5955 12.0946 27.6982C11.9783 28.2812 11.8967 28.8733 11.8 29.4805C12.5129 29.4805 13.1624 29.4805 13.8361 29.4805C13.9478 28.8023 14.0536 28.1573 14.1714 27.4369Z" fill="#EB6A24"/>
<path d="M32.8899 44.9076C32.8899 46.1854 32.5108 47.2155 31.662 47.9299C30.6605 48.7712 29.5398 49.4766 28.4372 50.1895C28.2333 50.3209 27.8028 50.3194 27.5929 50.191C26.5688 49.5627 25.513 48.954 24.6023 48.1807C23.3501 47.1158 22.8517 45.693 23.2625 44.0542C23.761 42.071 25.9314 41.1723 27.7032 42.1722C27.8466 42.2538 28.111 42.2946 28.2303 42.216C30.0337 41.0319 32.9247 42.2628 32.8899 44.9076ZM24.7926 45.0601C24.7624 45.0858 24.7322 45.1115 24.702 45.1372C24.9557 45.6477 25.0992 46.273 25.4874 46.6415C26.1897 47.3076 27.0325 47.8257 27.8285 48.3921C27.9116 48.451 28.1049 48.4646 28.1804 48.4087C29.0127 47.8 29.8933 47.2382 30.6349 46.5328C31.2209 45.9754 31.3523 45.1734 31.0699 44.3744C30.8932 43.873 30.514 43.5754 29.9839 43.4999C29.4915 43.4304 29.1078 43.5965 28.8224 44.0225C28.3088 44.7868 27.75 44.7762 27.1896 44.0164C26.5809 43.1887 25.4118 43.305 24.9965 44.249C24.8862 44.4998 24.859 44.7883 24.7926 45.0601Z" fill="#EB6A24"/>
<path d="M34.6618 25.212C34.3099 25.3132 33.9685 25.4869 33.6241 25.496C32.2466 25.5292 30.8691 25.5126 29.4916 25.508C28.7138 25.505 28.4389 25.2331 28.4374 24.4523C28.4328 21.1686 28.4328 17.885 28.4374 14.6013C28.4389 13.8174 28.7077 13.5516 29.4977 13.547C30.8193 13.5395 32.1409 13.5304 33.461 13.5546C33.8356 13.5622 34.2071 13.6815 34.7282 13.7781C35.5514 12.7979 36.5513 11.7602 37.3594 10.5897C37.7853 9.97189 37.8941 9.12757 38.1131 8.37538C38.2067 8.05366 38.1629 7.68814 38.2747 7.377C38.5209 6.69882 39.0465 6.30762 39.764 6.24267C40.4875 6.17773 41.0599 6.48434 41.4118 7.12023C42.3891 8.88439 42.5431 10.7256 41.8786 12.6332C41.8 12.8598 41.7169 13.0864 41.6173 13.3688C42.9736 13.3688 44.2741 13.3658 45.5745 13.3688C47.0819 13.3718 47.9701 14.2509 47.9731 15.7538C47.9776 18.3577 47.9761 20.9632 47.9701 23.5672C47.967 24.8873 47.1424 25.86 45.8449 25.8796C42.9781 25.9204 40.1068 25.9264 37.2416 25.8373C36.364 25.8086 35.5016 25.425 34.6618 25.212ZM39.9075 7.92679C39.8561 8.1609 39.8289 8.23038 39.8259 8.29986C39.7534 10.0202 39.0435 11.4566 37.9001 12.7148C36.935 13.7766 35.9789 14.8475 35.059 15.9471C34.8536 16.1918 34.7192 16.5724 34.7116 16.8926C34.6769 18.4967 34.695 20.1023 34.695 21.7063C34.695 23.1306 34.911 23.4675 36.287 23.9266C36.7794 24.0913 37.3186 24.1864 37.8382 24.191C40.3863 24.2181 42.9358 24.2061 45.4839 24.2015C46.147 24.2 46.2693 24.0686 46.2693 23.3995C46.2708 20.8892 46.2724 18.3774 46.2708 15.867C46.2708 15.1572 46.1742 15.068 45.4371 15.0665C43.8134 15.062 42.1897 15.065 40.566 15.056C39.6114 15.0514 39.2595 14.5288 39.6129 13.6573C39.847 13.0818 40.1174 12.5169 40.3138 11.9294C40.7593 10.5957 40.6461 9.30127 39.9075 7.92679ZM30.1592 23.768C31.138 23.768 32.0488 23.768 32.955 23.768C32.955 20.9103 32.955 18.0949 32.955 15.2901C32.0019 15.2901 31.0896 15.2901 30.1592 15.2901C30.1592 18.1357 30.1592 20.936 30.1592 23.768Z" fill="#EB6A24"/>
</svg>
